ST-558 Final Project
…
One way contingency tables

The following code gives frequency plus percent of each factor.

factor_summary <-diabetes1|>
  select(where(is.factor))|>
  pivot_longer(everything(),names_to = "Variable", values_to = "Value")|>
  group_by(Variable,Value)|>
  summarise(Count=n(),.groups = "drop")|>
  group_by(Variable)|>
  mutate(Percent=round(100*Count/sum(Count),1))|>
  ungroup()
factor_summary

# A tibble: 62 × 4
   Variable  Value Count Percent
   <chr>     <fct> <int>   <dbl>
 1 Age_group 18-24  5700     2.2
 2 Age_group 25-29  7598     3  
 3 Age_group 30-34 11123     4.4
 4 Age_group 35-39 13823     5.4
 5 Age_group 40-44 16157     6.4
 6 Age_group 45-49 19819     7.8
 7 Age_group 50-54 26314    10.4
 8 Age_group 55-59 30832    12.2
 9 Age_group 60-64 33244    13.1
10 Age_group 65-69 32194    12.7
# ℹ 52 more rows
…
