Predictive Modeling
…
Computational engine: rpart 

Grid of tuning parameters ( custom grid)

create grid of possible values for the model on how much to prune and how deep to let it grow. we’re providing R with Ranges are the smallest and largest values

tree_grid <- grid_regular(
  cost_complexity(range = c(-5, -1)), 
  tree_depth(range = c(2, 10)),
  levels = 5
)
tree_grid

# A tibble: 25 × 2
   cost_complexity tree_depth
             <dbl>      <int>
 1         0.00001          2
 2         0.0001           2
 3         0.001            2
 4         0.01             2
 5         0.1              2
 6         0.00001          4
 7         0.0001           4
 8         0.001            4
 9         0.01             4
10         0.1              4
# ℹ 15 more rows
…
